{
    "custom": {
        "^u--(.*)": "@/uni_modules/uview-plus/components/u-$1/u-$1.vue",
        "^up-(.*)": "@/uni_modules/uview-plus/components/u-$1/u-$1.vue",
        "^u-([^-].*)": "@/uni_modules/uview-plus/components/u-$1/u-$1.vue"
    },
    "pages": [
        {
            "path": "pages/index/index",

            "style": {
                "navigationBarTitleText": "uni-app",
                "navigationStyle": "custom",
                "enablePullDownRefresh": false

            }
        },
        {
            "path": "pages/find/find",

            "style": {
                "navigationBarTitleText": "uni-app",
                "navigationStyle": "custom"
            }
        },
        {
            "path": "pages/msg/msg",

            "style": {
                "navigationBarTitleText": "uni-app",
                "navigationStyle": "custom"
            }
        },
        {
            "path": "pages/my/my",

            "style": {
                "navigationBarTitleText": "uni-app",
                "navigationStyle": "custom"
            }
        },
        {
            "path": "pages/product-detail/product-detail",

            "style": {
                "navigationBarTitleText": "",
                "navigationStyle": "custom"
            }
        }
    ],
    "globalStyle": {
        "navigationBarTextStyle": "black",
        "navigationBarTitleText": "uni-app",
        "navigationBarBackgroundColor": "#F8F8F8",
        "backgroundColor": "#F8F8F8"
    },
    "tabBar": {
        "color": "#666666",
        "selectedColor": "#000000",
        "borderStyle": "black",
        "backgroundColor": "#ffffff",
        "list": [
            {
                "pagePath": "pages/index/index",
                "iconPath": "static/tabbar/home.png",
                "selectedIconPath": "static/tabbar/home_a.png",
                "text": "首页"
            },
            {
                "pagePath": "pages/find/find",
                "iconPath": "static/tabbar/find.png",
                "selectedIconPath": "static/tabbar/find_a.png",
                "text": "发现"
            },
            {
                "pagePath": "pages/msg/msg",
                "iconPath": "static/tabbar/msg.png",
                "selectedIconPath": "static/tabbar/msg_a.png",
                "text": "消息"
            },
            {
                "pagePath": "pages/my/my",
                "iconPath": "static/tabbar/my.png",
                "selectedIconPath": "static/tabbar/my_a.png",
                "text": "我的"
            }
        ]
    }
}
